Designing a Tax Credit Policy for Work Loss Days: A Predictive Modeling and Microsimulation Approach
…
# Make predictions with the testing data
model_predictions <- bind_cols(
  work_loss_test,
  predict(object = extract_workflow(model_final_fit), 
          new_data = work_loss_test) 
)

# Display the first 10 predictions against the actual values
select(model_predictions, wldayr, starts_with(".pred"))

# A tibble: 14,567 × 2
   wldayr   .pred
    <dbl>   <dbl>
 1      0 0      
 2      0 0      
 3      0 0      
 4      0 0      
 5      0 1.93   
 6      0 0.257  
 7      0 2.57   
 8      0 0.00280
 9      0 0      
10      0 0      
# ℹ 14,557 more rows
…
